…
## Example

Load the rsodb and dplyr packages

``` r
library(rsodb)
library(dplyr)
```

Discover all available datasets.

``` r
ds <- datasets()
ds
#> # A tibble: 151 × 13
#>       id biotech  species tissue n_unit author  year title journal doi   country
#>    <int> <chr>    <chr>   <chr>   <int> <chr>  <int> <chr> <chr>   <chr> <chr>  
#>  1     0 Slide-s… Mouse(… Testi… 2.07e5 Chen,…  2021 Diss… Cell R… http… USA    
#>  2     1 Slide-s… Mouse(… Hippo… 2.33e5 Stick…  2020 High… Nature… 10.1… USA    
#>  3     2 Slide-s… Mouse(… nan(9… 2.56e6 Rodri…  2019 Slid… Science 10.1… USA    
#>  4     3 10X Vis… Mouse(… Intes… 1.37e4 Parig…  2022 The … Nature… 10.1… USA    
#>  5     4 10X Vis… Mouse(… Liver… 2.42e4 Guill…  2022 Spat… Cell    10.1… Belgium
#>  6     6 10X Vis… Human(… Brain… 4.77e4 Mayna…  2021 Tran… Nature… 10.1… USA    
#>  7     7 10X Vis… Chicke… Heart… 6.60e3 Mantr…  2021 Spat… Nature… 10.1… USA    
#>  8     8 10X Vis… zebraf… melan… 7.28e3 Hunte…  2021 Spat… Nature… 10.1… USA    
#>  9     9 10X Vis… Mouse(… Liver… 8.75e3 Hilde…  2021 Spat… Nature… 10.1… Sweden 
#> 10    11 10X Vis… Human(… Intes… 2.12e4 Fawkn…  2021 Spat… Cell    10.1… UK     
#> # … with 141 more rows, and 2 more variables: access <chr>, dataset <chr>
…
